29
0.06947147
441
121
0.9883024
0.9244719
0.005194992
0.01716323
 
23
0.08768325
443
204
0.9871835
0.8364968
0.005637421
0.04023995
 
0
NaN
63
1
0.9998453
1.025458
0.001480231
3.209929E-05
 
2
1.024829
133
54
0.9816959
0.9958191
0.003614188
0.004940089
 
0
NaN
0
0
1.026468
1.026611
1.944365E-09
0
 
0
NaN
107
66
0.5892885
0.5694872
0.03700471
0.02347519
 
0
NaN
0
91
NaN
0.8830834
NaN
0.03098324
 
0
NaN
0
0
NaN
1.026611
NaN
1.248455E-08
 
0
NaN
0
95
NaN
0.8929262
NaN
0.03054128
 
0
NaN
0
93
NaN
0.877535
NaN
0.02880292
 
