(0.2453295, 0.2508262, 0.2543478)
(1.823426, 1.904886, 1.972727)
(1.670831, 1.862871, 2.104562)
(277.7263, 337.8152, 358.2194)
(257.5806, 318.6021, 356.3318)
(0.4096476, 0.4505801, 0.5072336)
(0.3477085, 0.4546387, 0.5792987)
(0.2178693, 0.2632922, 0.3726566)
(0.1656193, 0.268766, 0.4107664)
(0.7772441, 0.9581998, 1.02589)
(1.192093E-06, 0.002953669, 0.04043227)
(2.622604E-06, 0.004816887, 0.02472246)
(0.004816887, 0.01630525, 0.0501945)
 
