(0.2527105, 0.2781669, 0.2862667)
(1.917663, 1.975776, 2.022515)
(1.46806, 1.798126, 2.187338)
(286.8598, 326.033, 354.4496)
(0.8070268, 312.4015, 359.7086)
(0.4417395, 0.4859627, 0.5447094)
(0.3600906, 0.4836803, 0.6519049)
(0.2453503, 0.3004314, 0.3775597)
(0.160513, 0.3121835, 0.5035797)
(0.5803905, 0.8272594, 1.023803)
(3.838539E-05, 0.008651756, 0.06993055)
(8.106232E-06, 0.009031996, 0.02386796)
(0.009031996, 0.02015894, 0.05083418)
 
(0.269458, 0.2725195, 0.2757773)
(1.90181, 1.934326, 1.952611)
(1.769763, 1.907091, 2.074996)
(310.7792, 332.6728, 347.8618)
(301.0244, 334.1446, 358.293)
(0.4341451, 0.4597488, 0.4780303)
(0.3902955, 0.4490667, 0.5282314)
(0.2428183, 0.2749933, 0.3035636)
(0.2063256, 0.263001, 0.3506978)
(0.9530669, 1.003695, 1.021387)
(1.716614E-05, 0.002226232, 0.00888443)
(3.457069E-06, 0.001912406, 0.005220294)
(0.001912406, 0.008570471, 0.03247499)
 
(0.268445, 0.2718918, 0.2755458)
(1.892483, 1.930051, 1.950737)
(1.765443, 1.876191, 2.05003)
(303.7355, 329.8925, 349.7853)
(299.6667, 332.5072, 356.9449)
(0.4345445, 0.4589416, 0.4828027)
(0.3872406, 0.4345233, 0.5304977)
(0.2477964, 0.2762563, 0.3130124)
(0.2033428, 0.2469024, 0.3411564)
(0.9137346, 0.9997656, 1.023829)
(6.079674E-06, 0.003849766, 0.01588607)
(1.096725E-05, 0.002514449, 0.01026773)
(0.002514449, 0.007553408, 0.03505445)
 
(0.268024, 0.271863, 0.2764614)
(1.905142, 1.921324, 1.933598)
(1.693993, 1.867078, 2.077758)
(309.6109, 333.3177, 351.4012)
(281.9561, 328.4012, 359.0152)
(0.436489, 0.4503606, 0.4748162)
(0.3607249, 0.4372859, 0.5487016)
(0.242146, 0.2610517, 0.2898965)
(0.1802384, 0.2475961, 0.3619287)
(0.7922077, 0.9801782, 1.028243)
(5.960464E-08, 0.003498049, 0.02407801)
(7.510185E-06, 0.001605737, 0.003348947)
(0.001605737, 0.00940728, 0.05498588)
 
(0.2664079, 0.2716408, 0.2760449)
(1.884075, 1.919602, 1.951771)
(1.708114, 1.875353, 2.07706)
(305.5657, 328.3034, 341.5581)
(284.1466, 327.4379, 358.7617)
(0.4253012, 0.4503449, 0.4827975)
(0.3688975, 0.4413684, 0.5466628)
(0.235438, 0.2666063, 0.310832)
(0.183979, 0.2525969, 0.3624249)
(0.801047, 0.9868279, 1.030697)
(5.364418E-06, 0.003565361, 0.01490915)
(6.67572E-06, 0.004188357, 0.01118159)
(0.004188357, 0.01051258, 0.0408175)
 
(0.2657933, 0.2698779, 0.2739085)
(1.896134, 1.932085, 1.961806)
(1.682645, 1.859084, 2.10097)
(306.9514, 330.4377, 345.4222)
(285.8346, 325.848, 358.8355)
(0.4338189, 0.4557816, 0.4811609)
(0.3705694, 0.4354539, 0.5502707)
(0.241834, 0.2702779, 0.3035942)
(0.1791056, 0.248198, 0.3714045)
(0.8193537, 0.9791231, 1.030627)
(2.026558E-05, 0.003480702, 0.01817936)
(8.34465E-07, 0.005204091, 0.01671255)
(0.005204091, 0.01144387, 0.04823112)
 
(0.2676559, 0.2719783, 0.2755689)
(1.888593, 1.948355, 2.013155)
(1.466291, 1.797651, 2.16986)
(283.5291, 325.1251, 349.2478)
(252.5173, 313.3623, 359.8216)
(0.4237477, 0.466974, 0.530267)
(0.3166433, 0.4409797, 0.5864093)
(0.2280331, 0.2851707, 0.3761718)
(0.1374313, 0.2564859, 0.4004171)
(0.6342971, 0.9080051, 1.026041)
(4.23193E-05, 0.007252592, 0.02696908)
(4.482269E-05, 0.0110106, 0.02487183)
(0.0110106, 0.02194854, 0.06256032)
 
(0.2520199, 0.3072734, 0.35167)
(1.557283, 1.98632, 2.043541)
(1.982952, 2.034514, 2.05858)
(0.02338459, 340.6146, 359.7957)
(337.4472, 353.93, 358.1225)
(0.2711394, 0.5245837, 0.8761671)
(0.4946643, 0.5185547, 0.5330647)
(0.06947291, 0.3573693, 0.9895429)
(0.2981682, 0.321298, 0.3355703)
(0.9932663, 1.007216, 1.013874)
(0, 0.004105486, 0.7678982)
(3.457069E-06, 0.003671835, 0.4068397)
(0.003671835, 0.003754359, 0.009570837)
 
(0.3231158, 0.324171, 0.3255005)
(1.962545, 2.040298, 2.108764)
(1.548945, 1.901991, 2.268089)
(269.5048, 321.4258, 350.8518)
(262.1313, 306.6349, 359.3839)
(0.4678986, 0.5209274, 0.6118038)
(0.392796, 0.506777, 0.6374612)
(0.2795289, 0.341108, 0.45232)
(0.2233264, 0.3248501, 0.4548725)
(0.6747372, 0.8852303, 1.025016)
(1.460314E-05, 0.01104958, 0.07047755)
(0.0001022816, 0.01378559, 0.03746963)
(0.01378559, 0.02455847, 0.08793592)
 
(0.2771716, 0.2787867, 0.2807364)
(1.879706, 1.948765, 2.010036)
(1.492871, 1.826495, 2.191033)
(272.8148, 324.1464, 349.7453)
(266.9341, 310.2813, 359.7904)
(0.4289695, 0.4755643, 0.5443108)
(0.355637, 0.46223, 0.5855147)
(0.2399852, 0.2919553, 0.3982909)
(0.1836941, 0.2766837, 0.398874)
(0.647624, 0.8985775, 1.027653)
(5.972385E-05, 0.01066507, 0.03783798)
(4.649162E-06, 0.01188934, 0.02170408)
(0.01188934, 0.0222459, 0.05144441)
 
(0.273126, 0.2744552, 0.2758119)
(1.883508, 1.944137, 2.005609)
(1.544094, 1.83527, 2.18442)
(283.8143, 326.6967, 350.0542)
(268.9244, 312.7124, 359.3108)
(0.4325618, 0.4694453, 0.5260494)
(0.3487562, 0.4604746, 0.5850528)
(0.2347446, 0.2855637, 0.3684955)
(0.1630903, 0.2753038, 0.3995023)
(0.7047549, 0.911956, 1.026279)
(2.193451E-05, 0.008469928, 0.0523451)
(1.418591E-05, 0.01179641, 0.02983999)
(0.01179641, 0.02241075, 0.06600571)
 
