(0.3033855, 0.3102248, 0.3143432)
(1.967669, 2.012735, 2.074162)
(1.475874, 1.873033, 2.214745)
(287.9916, 329.3126, 353.2061)
(0.2217773, 313.9594, 359.9108)
(0.4759396, 0.5050127, 0.5603648)
(0.3547367, 0.4967019, 0.6130475)
(0.2825664, 0.3208862, 0.3955269)
(0.1833031, 0.3119514, 0.4228531)
(0.5489572, 0.8789192, 1.010264)
(2.026558E-06, 0.004892027, 0.02338779)
(2.241135E-05, 0.009346624, 0.01838326)
(0.009346624, 0.024789, 0.05787897)
 
(0.3045881, 0.3096631, 0.3120445)
(1.958229, 2.009987, 2.066877)
(1.458434, 1.867753, 2.221227)
(277.8376, 328.6626, 353.1968)
(0.09063567, 313.243, 359.8701)
(0.4738158, 0.5069727, 0.5593137)
(0.3475727, 0.5068188, 0.6134658)
(0.2808298, 0.3217757, 0.4112937)
(0.1610435, 0.3202824, 0.4205131)
(0.5244023, 0.8541363, 1.009672)
(2.288818E-05, 0.006418948, 0.02592391)
(1.096725E-05, 0.01086579, 0.0201664)
(0.01086579, 0.02970387, 0.06882977)
 
