(0.1763326, 0.1826339, 0.1916635)
(1.762592, 1.811969, 1.863911)
(1.382321, 1.685699, 1.952732)
(263.4032, 324.2898, 357.3498)
(0.05184666, 303.2885, 359.9438)
(0.3644319, 0.4078217, 0.5103148)
(0.2594734, 0.3933053, 0.5052288)
(0.1670936, 0.2190381, 0.3535264)
(0.08151948, 0.2107808, 0.3213984)
(0.5837129, 0.9006142, 1.028805)
(1.215935E-05, 0.01549201, 0.07781476)
(7.152557E-07, 0.01245128, 0.02577257)
(0.01245128, 0.02518839, 0.05961084)
 
