(0.2174218, 0.2218132, 0.2245902)
(1.790071, 1.845305, 1.912162)
(1.357885, 1.70441, 2.057819)
(282.9201, 320.1335, 350.2573)
(0.08669848, 300.0712, 359.9874)
(0.3828312, 0.4222492, 0.5037116)
(0.2930963, 0.4237534, 0.5508202)
(0.1930027, 0.2425599, 0.3250199)
(0.1114881, 0.2421513, 0.3602228)
(0.5879784, 0.8619809, 1.030337)
(1.871586E-05, 0.007360942, 0.03699178)
(6.67572E-06, 0.009935758, 0.01804721)
(0.009935758, 0.02521417, 0.06554949)
 
