(0.2805919, 0.2877508, 0.2922373)
(1.890994, 1.977816, 2.055333)
(1.725311, 1.94404, 2.159554)
(277.5706, 327.0728, 355.3326)
(234.2198, 322.5645, 358.2087)
(0.4294764, 0.4834174, 0.5378788)
(0.3759151, 0.4933262, 0.6921627)
(0.2286829, 0.3110765, 0.4277804)
(0.174337, 0.3071034, 0.5727578)
(0.6394134, 0.9465967, 1.019235)
(6.556511E-06, 0.003212602, 0.0121578)
(5.578995E-05, 0.01470994, 0.03854072)
(0.01470994, 0.02167523, 0.07304037)
 
(0.2486436, 0.2588396, 0.2738544)
(1.860505, 1.924679, 1.97242)
(1.760975, 1.933671, 2.151751)
(305.47, 333.4985, 357.8764)
(240.7885, 331.4154, 356.256)
(0.4219615, 0.457482, 0.4927744)
(0.3780964, 0.4681401, 0.6292467)
(0.231898, 0.2735721, 0.3210712)
(0.1913141, 0.2830159, 0.5129396)
(0.6954772, 0.9851131, 1.024221)
(1.478195E-05, 0.002923935, 0.01589942)
(1.478195E-05, 0.0101503, 0.03057957)
(0.0101503, 0.01465788, 0.1517835)
 
