(0.2100434, 0.2146899, 0.2250745)
(1.815999, 1.849375, 1.882536)
(1.627304, 1.804893, 1.958392)
(298.2072, 326.78, 347.1728)
(271.0419, 329.4536, 357.5672)
(0.3964183, 0.4196044, 0.4504532)
(0.3217489, 0.4031, 0.5111318)
(0.2082643, 0.237431, 0.2813478)
(0.1426799, 0.2183212, 0.3398458)
(0.835789, 1.000419, 1.023464)
(4.291534E-05, 0.004456169, 0.01568067)
(1.478195E-05, 0.006082376, 0.01311219)
(0.006082376, 0.01232893, 0.04255712)
 
(0.2141895, 0.2193378, 0.2247492)
(1.826024, 1.838912, 1.853458)
(1.68698, 1.812252, 1.936909)
(295.1124, 333.1347, 357.3233)
(301.8353, 334.5925, 358.4438)
(0.4044841, 0.4196391, 0.4551621)
(0.3406654, 0.4015532, 0.4667029)
(0.2092562, 0.2307593, 0.2794794)
(0.1540697, 0.2147637, 0.2874172)
(0.9656458, 1.009122, 1.026768)
(1.621246E-05, 0.007948287, 0.02695984)
(3.218651E-06, 0.001792461, 0.004190326)
(0.001792461, 0.006730396, 0.03004038)
 
