42
0.04543578
520
223
0.9862745
0.9663355
0.0055673
0.008818244
 
32
0.05947928
527
224
0.9822638
0.9677095
0.005728815
0.007900848
 
30
0.06340846
518
224
0.981108
0.9619879
0.006457608
0.009177437
 
