27
0.07164971
572
257
0.9804316
0.9423345
0.005270937
0.008148352
 
31
0.06119254
523
273
0.9800475
0.9254209
0.005393477
0.007026895
 
30
0.06459334
564
258
0.9681137
0.8968631
0.005684444
0.006696291
 
8
0.2423914
198
287
0.9756361
0.9290054
0.005213071
0.006656181
 
10
0.1981768
197
270
0.9728725
0.935676
0.005105461
0.006436185
 
8
0.2368616
206
265
0.971544
0.9307664
0.005012399
0.006048147
 
