106
0.01648441
400
171
0.9918575
0.9404258
0.003585446
0.008939012
 
104
0.01701963
401
166
0.9995094
0.9436589
0.002467321
0.008762259
 
71
0.02443807
397
202
0.9971213
0.897339
0.002425973
0.01306761
 
