4
0.4633374
414
125
1.006993
1.009293
0.002221862
0.001819006
 
3
0.6164415
482
212
1.003281
0.9743092
0.002645277
0.004126275
 
3
0.6216404
464
215
1.006859
0.9679964
0.002425712
0.0048365
 
4
0.4645596
468
226
1.007459
0.9414471
0.002142692
0.005864473
 
